^C:\USERS\VERSUS\DESKTOP\PRACTICA3D\PRACTICA3DAVANZADO\CODE\SOURCES\MAIN.CPP|C:\USERS\VERSUS\DESKTOP\PRACTICA3D\PRACTICA3DAVANZADO\CODE\SOURCES\MESH.CPP|C:\USERS\VERSUS\DESKTOP\PRACTICA3D\PRACTICA3DAVANZADO\CODE\SOURCES\OBJ_LOADER.CPP|C:\USERS\VERSUS\DESKTOP\PRACTICA3D\PRACTICA3DAVANZADO\CODE\SOURCES\VIEW.CPP
C:\USERS\VERSUS\DESKTOP\PRACTICA3D\PRACTICA3DAVANZADO\BINARIES\BIN-INT\WIN32\RELEASE\VC141.PDB
C:\USERS\VERSUS\DESKTOP\PRACTICA3D\PRACTICA3DAVANZADO\BINARIES\BIN-INT\WIN32\RELEASE\MAIN.OBJ
C:\USERS\VERSUS\DESKTOP\PRACTICA3D\PRACTICA3DAVANZADO\BINARIES\BIN-INT\WIN32\RELEASE\VIEW.OBJ
C:\USERS\VERSUS\DESKTOP\PRACTICA3D\PRACTICA3DAVANZADO\BINARIES\BIN-INT\WIN32\RELEASE\OBJ_LOADER.OBJ
C:\USERS\VERSUS\DESKTOP\PRACTICA3D\PRACTICA3DAVANZADO\BINARIES\BIN-INT\WIN32\RELEASE\MESH.OBJ
^C:\USERS\VERSUS\DESKTOP\PRACTICA3D\PRACTICA3DAVANZADO\CODE\SOURCES\MESH.CPP
C:\USERS\VERSUS\DESKTOP\PRACTICA3D\PRACTICA3DAVANZADO\BINARIES\BIN-INT\WIN32\RELEASE\VC141.PDB
^C:\USERS\VERSUS\DESKTOP\PRACTICA3D\PRACTICA3DAVANZADO\CODE\SOURCES\OBJ_LOADER.CPP
C:\USERS\VERSUS\DESKTOP\PRACTICA3D\PRACTICA3DAVANZADO\BINARIES\BIN-INT\WIN32\RELEASE\VC141.PDB
^C:\USERS\VERSUS\DESKTOP\PRACTICA3D\PRACTICA3DAVANZADO\CODE\SOURCES\VIEW.CPP
C:\USERS\VERSUS\DESKTOP\PRACTICA3D\PRACTICA3DAVANZADO\BINARIES\BIN-INT\WIN32\RELEASE\VC141.PDB
^C:\USERS\VERSUS\DESKTOP\PRACTICA3D\PRACTICA3DAVANZADO\CODE\SOURCES\MAIN.CPP
C:\USERS\VERSUS\DESKTOP\PRACTICA3D\PRACTICA3DAVANZADO\BINARIES\BIN-INT\WIN32\RELEASE\VC141.PDB
